Projekt z zakresu analizy danych
…
Clustering vector:
 [1] 2 1 1 1 1 3 3 2 1 1 1 1 1 2 2 2 2 1 1 1 1 1 3 1 2 1 3 1 1

Within cluster sum of squares by cluster:
[1] 20.037481  7.282887  2.778946
 (between_SS / total_SS =  64.2 %)

Available components:

[1] "cluster"      "centers"      "totss"        "withinss"     "tot.withinss"
[6] "betweenss"    "size"         "iter"         "ifault"      

# A tibble: 29 × 5
   Squad          proc.short proc.mid proc.long Cluster
   <chr>               <dbl>    <dbl>     <dbl> <fct>  
 1 Arsenal             0.422    0.398     0.124 2      
 2 Aston Villa         0.395    0.378     0.169 1      
 3 Bournemouth         0.411    0.373     0.160 1      
 4 Brentford           0.391    0.368     0.182 1      
 5 Brighton            0.397    0.386     0.158 1      
 6 Burnley             0.373    0.327     0.230 3      
 7 Cardiff City        0.350    0.309     0.255 3      
 8 Chelsea             0.454    0.374     0.110 2      
 9 Crystal Palace      0.413    0.361     0.164 1      
10 Everton             0.394    0.358     0.178 1      
# ℹ 19 more rows
…
